2005-05-23 13:00 +0000 [r417337]  adrian

	* kmouth/wordcompletion/dictionarycreationwizard.h: fix compile
	  with gcc 4 branch (add missing class declaration)

2005-06-27 15:18 +0000 [r429401]  binner

	* kdeaccessibility.lsm: 3.4.2 preparations

